Exploración de expresión génica en Phaseolus vulgaris
…
# Descarga de ocurrencias -------------------------------------------------

Pse_lep <- occ_search(scientificName = "Nyctibius grandis",
                      hasCoordinate = TRUE,
                      hasGeospatialIssue = FALSE
)$data

Pse_lep

## # A tibble: 500 × 138
##    key        scientificName  decimalLatitude decimalLongitude issues datasetKey
##    <chr>      <chr>                     <dbl>            <dbl> <chr>  <chr>     
##  1 5007557714 Nyctibius gran…           10.5             -83.9 cdc,c… 50c9509d-…
##  2 5007600160 Nyctibius gran…          -12.9             -71.4 cdc,c… 50c9509d-…
##  3 5008089021 Nyctibius gran…           10.5             -83.8 cdc,c… 50c9509d-…
##  4 5036715614 Nyctibius gran…          -11.0             -66.1 cdc,c… 50c9509d-…
##  5 5036878407 Nyctibius gran…          -11.0             -66.1 cdc,c… 50c9509d-…
##  6 5062946758 Nyctibius gran…          -11.0             -66.1 cdc,c… 50c9509d-…
##  7 5063040716 Nyctibius gran…           -4.34            -73.9 cdc,c… 50c9509d-…
##  8 5063043830 Nyctibius gran…           10.4             -83.8 cdc,c… 50c9509d-…
##  9 5063077518 Nyctibius gran…            5.50            -74.6 cdc,c… 50c9509d-…
## 10 5063122137 Nyctibius gran…          -11.0             -68.8 cdc,c… 50c9509d-…
## # ℹ 490 more rows
## # ℹ 132 more variables: publishingOrgKey <chr>, installationKey <chr>,
## #   hostingOrganizationKey <chr>, publishingCountry <chr>, protocol <chr>,
## #   lastCrawled <chr>, lastParsed <chr>, crawlId <int>, basisOfRecord <chr>,
## #   occurrenceStatus <chr>, taxonKey <int>, kingdomKey <int>, phylumKey <int>,
## #   classKey <int>, orderKey <int>, familyKey <int>, genusKey <int>,
## #   speciesKey <int>, acceptedTaxonKey <int>, acceptedScientificName <chr>, …
…
#los CRS tienen c?digos ?nicos que los identifican (ESPG)
#el m?s com?n es el 4326 que corresponde a WGS 84 - WGS84 - Sistema Geod?sico Mundial 1984,
#https://epsg.io/4326

Pse_lep_sp

## Simple feature collection with 474 features and 136 fields
## Geometry type: POINT
## Dimension:     XY
## Bounding box:  xmin: -90.97078 ymin: -22.86172 xmax: -39.82878 ymax: 16.88824
## Geodetic CRS:  WGS 84
## # A tibble: 474 × 137
##    key        scientificName  issues datasetKey publishingOrgKey installationKey
##  * <chr>      <chr>           <chr>  <chr>      <chr>            <chr>          
##  1 5007557714 Nyctibius gran… cdc,c… 50c9509d-… 28eb1a3f-1c15-4… 997448a8-f762-…
##  2 5007600160 Nyctibius gran… cdc,c… 50c9509d-… 28eb1a3f-1c15-4… 997448a8-f762-…
##  3 5008089021 Nyctibius gran… cdc,c… 50c9509d-… 28eb1a3f-1c15-4… 997448a8-f762-…
##  4 5036715614 Nyctibius gran… cdc,c… 50c9509d-… 28eb1a3f-1c15-4… 997448a8-f762-…
##  5 5036878407 Nyctibius gran… cdc,c… 50c9509d-… 28eb1a3f-1c15-4… 997448a8-f762-…
##  6 5062946758 Nyctibius gran… cdc,c… 50c9509d-… 28eb1a3f-1c15-4… 997448a8-f762-…
##  7 5063040716 Nyctibius gran… cdc,c… 50c9509d-… 28eb1a3f-1c15-4… 997448a8-f762-…
##  8 5063043830 Nyctibius gran… cdc,c… 50c9509d-… 28eb1a3f-1c15-4… 997448a8-f762-…
##  9 5063077518 Nyctibius gran… cdc,c… 50c9509d-… 28eb1a3f-1c15-4… 997448a8-f762-…
## 10 5063122137 Nyctibius gran… cdc,c… 50c9509d-… 28eb1a3f-1c15-4… 997448a8-f762-…
## # ℹ 464 more rows
## # ℹ 131 more variables: hostingOrganizationKey <chr>, publishingCountry <chr>,
## #   protocol <chr>, lastCrawled <chr>, lastParsed <chr>, crawlId <int>,
## #   basisOfRecord <chr>, occurrenceStatus <chr>, taxonKey <int>,
## #   kingdomKey <int>, phylumKey <int>, classKey <int>, orderKey <int>,
## #   familyKey <int>, genusKey <int>, speciesKey <int>, acceptedTaxonKey <int>,
## #   acceptedScientificName <chr>, kingdom <chr>, phylum <chr>, order <chr>, …
…
